{
	"device-id": "686193a1-c206-4734-b121-ca41d2772f9c",
	"name" : "chkp_gw1",
	"ip": "192.168.162.11",
	"tags": {
		"vendor": "checkpoint",
		"os.name": "gaia", 
		"model": "2200", 
		"chassis": "false", 
		"vsx": "true", 
		"cluster-id": "chkp_cluster_sim_1939851",
		"vs-count": "7"
	}
}
