{
  "command" : "linux-domainname",
  "metrics" : [ {
    "tags" : {
      "display-name" : "Domain Name",
      "im.metric-type" : "runtime",
      "im.name" : "domain",
      "live-config" : "true"
    },
    "value" : {
      "value" : "test.local"
    }
  } ]
}
