{
  "command" : "f5-rest-mgmt-tm-ltm-virtual",
  "metrics" : [ {
    "tags" : {
      "im.dstype.displaytype" : "boolean",
      "im.name" : "f5-automap-used",
      "name" : "/Common/compression-level-6-vip-443"
    },
    "value" : {
      "value" : "true"
    }
  }, {
    "tags" : {
      "im.dstype.displaytype" : "boolean",
      "im.name" : "f5-automap-used",
      "name" : "/Common/defaultsslprofile-vip-443"
    },
    "value" : {
      "value" : "true"
    }
  }, {
    "tags" : {
      "im.name" : "f5-wildcard-forwarding-servers",
      "name" : "/Common/compression-level-6-vip-443"
    },
    "value" : {
      "value" : "false"
    }
  }, {
    "tags" : {
      "im.name" : "f5-wildcard-forwarding-servers",
      "name" : "/Common/defaultsslprofile-vip-443"
    },
    "value" : {
      "value" : "false"
    }
  }, {
    "tags" : {
      "im.name" : "f5-wildcard-forwarding-servers",
      "name" : "/Common/strongsslprofile-vip-443"
    },
    "value" : {
      "value" : "false"
    }
  }, {
    "tags" : {
      "im.dstype.displaytype" : "boolean",
      "im.name" : "f5-automap-used",
      "name" : "/Common/l3-forward-listen-all"
    },
    "value" : {
      "value" : "false"
    }
  }, {
    "tags" : {
      "im.dstype.displaytype" : "boolean",
      "im.name" : "f5-automap-used",
      "name" : "/Common/strongsslprofile-vip-443"
    },
    "value" : {
      "value" : "true"
    }
  }, {
    "tags" : {
      "im.dstype.displaytype" : "boolean",
      "im.name" : "f5-automap-used",
      "name" : "/Common/weaksslprofile-vip-443"
    },
    "value" : {
      "value" : "false"
    }
  }, {
    "tags" : {
      "im.name" : "f5-wildcard-forwarding-servers",
      "name" : "/Common/forward-anything"
    },
    "value" : {
      "value" : "true"
    }
  }, {
    "tags" : {
      "im.name" : "f5-wildcard-forwarding-servers",
      "name" : "/Common/l3-forward-listen-all"
    },
    "value" : {
      "value" : "false"
    }
  }, {
    "tags" : {
      "im.name" : "f5-wildcard-forwarding-servers",
      "name" : "/Common/weaksslprofile-vip-443"
    },
    "value" : {
      "value" : "false"
    }
  }, {
    "tags" : {
      "im.dstype.displaytype" : "boolean",
      "im.name" : "f5-automap-used",
      "name" : "/Common/forward-anything"
    },
    "value" : {
      "value" : "false"
    }
  } ]
}
