{
  "command" : "f5-route",
  "metrics" : [ {
    "tags" : {
      "im.metric-type" : "runtime",
      "im.name" : "connected-networks-table"
    },
    "value" : [ {
      "network" : "10.245.0.0",
      "mask" : "24"
    }, {
      "mask" : "24",
      "network" : "10.245.50.0"
    }, {
      "network" : "192.168.197.0",
      "mask" : "24"
    } ]
  } ]
}
