{
  "command" : "f5-tmsh-show-sys-performance-connections",
  "metrics" : [ {
    "tags" : {
      "im.dstype" : "number",
      "im.metric-type" : "ts",
      "im.name" : "concurrent-connections",
      "im.step" : "60"
    },
    "value" : "12678.0"
  }, {
    "tags" : {
      "im.dstype" : "number",
      "im.metric-type" : "ts",
      "im.name" : "connections-per-second",
      "im.step" : "60"
    },
    "value" : "728.0"
  } ]
}
