{
  "command" : "panos-show-counter-global-filter-severity-drop",
  "metrics" : [ {
    "tags" : {
      "description" : "ARP receive error",
      "display-name" : "Packet Drop Counters",
      "im.dstype" : "counter",
      "im.dstype.displaytype" : "number",
      "im.identity-tags" : "name",
      "im.name" : "packet-drop-counter",
      "live-config" : "true",
      "name" : "flow_arp_rcv_err"
    },
    "value" : "3.0"
  }, {
    "tags" : {
      "description" : "Device management session denied",
      "display-name" : "Packet Drop Counters",
      "im.dstype" : "counter",
      "im.dstype.displaytype" : "number",
      "im.identity-tags" : "name",
      "im.name" : "packet-drop-counter",
      "live-config" : "true",
      "name" : "flow_host_service_deny"
    },
    "value" : "8691.0"
  }, {
    "tags" : {
      "description" : "ICMP error packet dropped: no IP configured on the interface",
      "display-name" : "Packet Drop Counters",
      "im.dstype" : "counter",
      "im.dstype.displaytype" : "number",
      "im.identity-tags" : "name",
      "im.name" : "packet-drop-counter",
      "live-config" : "true",
      "name" : "flow_icmp_err_not_passing_thru"
    },
    "value" : "206.0"
  }, {
    "tags" : {
      "description" : "Packets dropped: 802.1q tag not configured",
      "display-name" : "Packet Drop Counters",
      "im.dstype" : "counter",
      "im.dstype.displaytype" : "number",
      "im.identity-tags" : "name",
      "im.name" : "packet-drop-counter",
      "live-config" : "true",
      "name" : "flow_rcv_dot1q_tag_err"
    },
    "value" : "15893.0"
  }, {
    "tags" : {
      "description" : "Packets dropped: IP TTL reaches zero",
      "display-name" : "Packet Drop Counters",
      "im.dstype" : "counter",
      "im.dstype.displaytype" : "number",
      "im.identity-tags" : "name",
      "im.name" : "packet-drop-counter",
      "live-config" : "true",
      "name" : "flow_fwd_l3_ttl_zero"
    },
    "value" : "212.0"
  }, {
    "tags" : {
      "description" : "Packets dropped: IPv6 disabled on interface",
      "display-name" : "Packet Drop Counters",
      "im.dstype" : "counter",
      "im.dstype.displaytype" : "number",
      "im.identity-tags" : "name",
      "im.name" : "packet-drop-counter",
      "live-config" : "true",
      "name" : "flow_ipv6_disabled"
    },
    "value" : "316857.0"
  }, {
    "tags" : {
      "description" : "Packets dropped: Platform encapsulation error",
      "display-name" : "Packet Drop Counters",
      "im.dstype" : "counter",
      "im.dstype.displaytype" : "number",
      "im.identity-tags" : "name",
      "im.name" : "packet-drop-counter",
      "live-config" : "true",
      "name" : "flow_xmt_platform_encap_err"
    },
    "value" : "507.0"
  }, {
    "tags" : {
      "description" : "Packets dropped: TCP/UDP checksum failure",
      "display-name" : "Packet Drop Counters",
      "im.dstype" : "counter",
      "im.dstype.displaytype" : "number",
      "im.identity-tags" : "name",
      "im.name" : "packet-drop-counter",
      "live-config" : "true",
      "name" : "flow_parse_l4_cksm"
    },
    "value" : "1.0"
  }, {
    "tags" : {
      "description" : "Packets dropped: decapsulation error from control plane",
      "display-name" : "Packet Drop Counters",
      "im.dstype" : "counter",
      "im.dstype.displaytype" : "number",
      "im.identity-tags" : "name",
      "im.name" : "packet-drop-counter",
      "live-config" : "true",
      "name" : "flow_host_decap_err"
    },
    "value" : "163.0"
  }, {
    "tags" : {
      "description" : "Packets dropped: flow stage receive error",
      "display-name" : "Packet Drop Counters",
      "im.dstype" : "counter",
      "im.dstype.displaytype" : "number",
      "im.identity-tags" : "name",
      "im.name" : "packet-drop-counter",
      "live-config" : "true",
      "name" : "flow_rcv_err"
    },
    "value" : "61.0"
  }, {
    "tags" : {
      "description" : "Packets dropped: invalid IP version",
      "display-name" : "Packet Drop Counters",
      "im.dstype" : "counter",
      "im.dstype.displaytype" : "number",
      "im.identity-tags" : "name",
      "im.name" : "packet-drop-counter",
      "live-config" : "true",
      "name" : "flow_parse_ip_ver"
    },
    "value" : "1.0"
  }, {
    "tags" : {
      "description" : "Packets dropped: invalid TCP flags (FIN only)",
      "display-name" : "Packet Drop Counters",
      "im.dstype" : "counter",
      "im.dstype.displaytype" : "number",
      "im.identity-tags" : "name",
      "im.name" : "packet-drop-counter",
      "live-config" : "true",
      "name" : "flow_parse_l4_tcpfin"
    },
    "value" : "43.0"
  }, {
    "tags" : {
      "description" : "Packets dropped: invalid TCP flags (SYN+FIN+*)",
      "display-name" : "Packet Drop Counters",
      "im.dstype" : "counter",
      "im.dstype.displaytype" : "number",
      "im.identity-tags" : "name",
      "im.name" : "packet-drop-counter",
      "live-config" : "true",
      "name" : "flow_parse_l4_tcpsynfin"
    },
    "value" : "16.0"
  }, {
    "tags" : {
      "description" : "Packets dropped: invalid interface",
      "display-name" : "Packet Drop Counters",
      "im.dstype" : "counter",
      "im.dstype.displaytype" : "number",
      "im.identity-tags" : "name",
      "im.name" : "packet-drop-counter",
      "live-config" : "true",
      "name" : "flow_no_interface"
    },
    "value" : "15893.0"
  }, {
    "tags" : {
      "description" : "Packets dropped: no ARP",
      "display-name" : "Packet Drop Counters",
      "im.dstype" : "counter",
      "im.dstype.displaytype" : "number",
      "im.identity-tags" : "name",
      "im.name" : "packet-drop-counter",
      "live-config" : "true",
      "name" : "flow_fwd_l3_noarp"
    },
    "value" : "640.0"
  }, {
    "tags" : {
      "description" : "Packets dropped: no route",
      "display-name" : "Packet Drop Counters",
      "im.dstype" : "counter",
      "im.dstype.displaytype" : "number",
      "im.identity-tags" : "name",
      "im.name" : "packet-drop-counter",
      "live-config" : "true",
      "name" : "flow_fwd_l3_noroute"
    },
    "value" : "8579.0"
  }, {
    "tags" : {
      "description" : "Packets dropped: no route for IP multicast",
      "display-name" : "Packet Drop Counters",
      "im.dstype" : "counter",
      "im.dstype.displaytype" : "number",
      "im.identity-tags" : "name",
      "im.name" : "packet-drop-counter",
      "live-config" : "true",
      "name" : "flow_fwd_l3_mcast_drop"
    },
    "value" : "104140.0"
  }, {
    "tags" : {
      "description" : "Packets dropped: non-SYN TCP without session match",
      "display-name" : "Packet Drop Counters",
      "im.dstype" : "counter",
      "im.dstype.displaytype" : "number",
      "im.identity-tags" : "name",
      "im.name" : "packet-drop-counter",
      "live-config" : "true",
      "name" : "flow_tcp_non_syn_drop"
    },
    "value" : "67984.0"
  }, {
    "tags" : {
      "description" : "Packets dropped: unhandled IP broadcast",
      "display-name" : "Packet Drop Counters",
      "im.dstype" : "counter",
      "im.dstype.displaytype" : "number",
      "im.identity-tags" : "name",
      "im.name" : "packet-drop-counter",
      "live-config" : "true",
      "name" : "flow_fwd_l3_bcast_drop"
    },
    "value" : "2769.0"
  }, {
    "tags" : {
      "description" : "Session discarded: unknown application to control plane",
      "display-name" : "Packet Drop Counters",
      "im.dstype" : "counter",
      "im.dstype.displaytype" : "number",
      "im.identity-tags" : "name",
      "im.name" : "packet-drop-counter",
      "live-config" : "true",
      "name" : "flow_host_service_unknown"
    },
    "value" : "14333.0"
  }, {
    "tags" : {
      "description" : "Session setup: no destination zone from forwarding",
      "display-name" : "Packet Drop Counters",
      "im.dstype" : "counter",
      "im.dstype.displaytype" : "number",
      "im.identity-tags" : "name",
      "im.name" : "packet-drop-counter",
      "live-config" : "true",
      "name" : "flow_policy_nofwd"
    },
    "value" : "44465.0"
  }, {
    "tags" : {
      "description" : "Session setup: source NAT IP allocation result in LAND attack",
      "display-name" : "Packet Drop Counters",
      "im.dstype" : "counter",
      "im.dstype.displaytype" : "number",
      "im.identity-tags" : "name",
      "im.name" : "packet-drop-counter",
      "live-config" : "true",
      "name" : "flow_policy_nat_land"
    },
    "value" : "696.0"
  }, {
    "tags" : {
      "description" : "Session setup: source NAT IP/port allocation error",
      "display-name" : "Packet Drop Counters",
      "im.dstype" : "counter",
      "im.dstype.displaytype" : "number",
      "im.identity-tags" : "name",
      "im.name" : "packet-drop-counter",
      "live-config" : "true",
      "name" : "flow_policy_nat"
    },
    "value" : "2.0"
  }, {
    "tags" : {
      "description" : "The number of packets get dropped because of waiting for url category request",
      "display-name" : "Packet Drop Counters",
      "im.dstype" : "counter",
      "im.dstype.displaytype" : "number",
      "im.identity-tags" : "name",
      "im.name" : "packet-drop-counter",
      "live-config" : "true",
      "name" : "url_request_pkt_drop"
    },
    "value" : "58.0"
  } ]
}
