{
  "command" : "chkp-process-state-fw",
  "metrics" : [ {
    "tags" : {
      "im.dstype" : "gauge",
      "description" : "Responsible for Correlation Unit functionality",
      "process-name" : "CPSEAD",
      "im.name" : "process-state",
      "im.metric-type" : "ts"
    },
    "value" : "1.0"
  }, {
    "tags" : {
      "im.dstype" : "gauge",
      "description" : "Communication between SmartConsole applications and Security Management Server",
      "process-name" : "FWM",
      "im.name" : "process-state",
      "im.metric-type" : "ts"
    },
    "value" : "1.0"
  }, {
    "tags" : {
      "im.dstype" : "gauge",
      "description" : "Check Point Upgrade Service Engine (CPUSE) - former 'Gaia Software Updates' service",
      "process-name" : "DASERVICE",
      "im.name" : "process-state",
      "im.metric-type" : "ts"
    },
    "value" : "1.0"
  }, {
    "tags" : {
      "im.dstype" : "gauge",
      "description" : "Generic process for many Check Point services such as installing and fetching policy and online updates",
      "process-name" : "CPD",
      "im.name" : "process-state",
      "im.metric-type" : "ts"
    } ,
    "value" : "0.0"
  }, {
    "tags" : {
      "im.dstype" : "gauge",
      "description" : "Status collection of ROBO Gateways - SmartLSM / SmartProvisioning status proxy. This process runs only on Security Management Server / Domain Management Servers that are activated for Large Scale Management / SmartProvisioning",
      "process-name" : "STPR",
      "im.name" : "process-state",
      "im.metric-type" : "ts"
    },
    "value" : "1.0"
  }, {
    "tags" : {
      "im.dstype" : "gauge",
      "description" : "CPView unility daemon",
      "process-name" : "CPVIEWD",
      "im.name" : "process-state",
      "im.metric-type" : "ts"
    },
    "value" : "1.0"
  }, {
    "tags" : {
      "im.dstype" : "gauge",
      "description" : "Controller for the SmartReporter product. Traffic is sent via SSL",
      "process-name" : "SVR",
      "im.name" : "process-state",
      "im.metric-type" : "ts"
    },
    "value" : "1.0"
  }, {
    "tags" : {
      "im.dstype" : "gauge",
      "description" : "Process is responsible for collecting and sending information to SmartView Monitor",
      "process-name" : "CPSM",
      "im.name" : "process-state",
      "im.metric-type" : "ts"
    },
    "value" : "1.0"
  }, {
    "tags" : {
      "im.dstype" : "gauge",
      "description" : "HTTP Server for Management Portal (SmartPortal) and for OS WebUI",
      "process-name" : "CPHTTPD",
      "im.name" : "process-state",
      "im.metric-type" : "ts"
    },
    "value" : "1.0"
  }, {
    "tags" : {
      "im.dstype" : "gauge",
      "description" : "Check Point Web Management Daemon - back-end for Management Portal / SmartPortal",
      "process-name" : "CPWMD",
      "im.name" : "process-state",
      "im.metric-type" : "ts"
    },
    "value" : "1.0"
  }, {
    "tags" : {
      "im.dstype" : "gauge",
      "description" : "Logging and spawning child processes (eg vpnd)",
      "process-name" : "FWD",
      "im.name" : "process-state",
      "im.metric-type" : "ts"
    },
    "value" : "1.0"
  } ]
}
